graphs/ALL0003/F0003CH1.CSV

Record Length,2.500000e+03,,  -0.000014300000,  -1.28000,
Sample Interval,1.000000e-08,,  -0.000014290000,  -1.24000,
Trigger Point,1.430000000000e+03,,  -0.000014280000,  -1.28000,
,,,  -0.000014270000,  -1.24000,
,,,  -0.000014260000,  -1.24000,
,,,  -0.000014250000,  -1.28000,
Source,CH1,,  -0.000014240000,  -1.28000,
Vertical Units,V,,  -0.000014230000,  -1.28000,
Vertical Scale,1.000000e+00,,  -0.000014220000,  -1.20000,
Vertical Offset,1.640000e+00,,  -0.000014210000,  -1.24000,
Horizontal Units,s,,  -0.000014200000,  -1.24000,
Horizontal Scale,2.500000e-06,,  -0.000014190000,  -1.24000,
Pt Fmt,Y,,  -0.000014180000,  -1.28000,
Yzero,0.000000e+00,,  -0.000014170000,  -1.32000,
Probe Atten,1.000000e+00,,  -0.000014160000,  -1.36000,
Model Number,TDS2022B,,  -0.000014150000,  -1.28000,
Serial Number,C055603,,  -0.000014140000,  -1.32000,
Firmware Version,FV:v22.16,,  -0.000014130000,  -1.24000,
,,,-00.000014120000,  -1.28000,
,,,-00.000014110000,  -1.28000,
,,,-00.000014100000,  -1.28000,
,,,-00.000014090000,  -1.24000,
,,,-00.000014080000,  -1.32000,
,,,-00.000014070000,  -1.28000,
,,,-00.000014060000,  -1.28000,
,,,-00.000014050000,  -1.32000,
,,,-00.000014040000,  -1.24000,
,,,-00.000014030000,  -1.24000,
,,,-00.000014020000,  -1.28000,
,,,-00.000014010000,  -1.28000,
,,,-00.000014000000,  -1.28000,
,,,-00.000013990000,  -1.28000,
,,,-00.000013980000,  -1.28000,
,,,-00.000013970000,  -1.24000,
,,,-00.000013960000,  -1.24000,
,,,-00.000013950000,  -1.28000,
,,,-00.000013940000,  -1.28000,
,,,-00.000013930000,  -1.28000,
,,,-00.000013920000,  -1.32000,
,,,-00.000013910000,  -1.24000,
,,,-00.000013900000,  -1.28000,
,,,-00.000013890000,  -1.24000,
,,,-00.000013880000,  -1.24000,
,,,-00.000013870000,  -1.28000,
,,,-00.000013860000,  -1.24000,
,,,-00.000013850000,  -1.32000,
,,,-00.000013840000,  -1.32000,
,,,-00.000013830000,  -1.28000,
,,,-00.000013820000,  -1.32000,
,,,-00.000013810000,  -1.28000,
,,,-00.000013800000,  -1.32000,
,,,-00.000013790000,  -1.28000,
,,,-00.000013780000,  -1.32000,
,,,-00.000013770000,  -1.28000,
,,,-00.000013760000,  -1.28000,
,,,-00.000013750000,  -1.28000,
,,,-00.000013740000,  -1.32000,
,,,-00.000013730000,  -1.24000,
,,,-00.000013720000,  -1.24000,
,,,-00.000013710000,  -1.20000,
,,,-00.000013700000,  -1.24000,
,,,-00.000013690000,  -1.28000,
,,,-00.000013680000,  -1.32000,
,,,-00.000013670000,  -1.16000,
,,,-00.000013660000,  -1.20000,
,,,-00.000013650000,  -1.28000,
,,,-00.000013640000,  -1.28000,
,,,-00.000013630000,  -1.20000,
,,,-00.000013620000,  -1.28000,
,,,-00.000013610000,  -1.32000,
,,,-00.000013600000,  -1.24000,
,,,-00.000013590000,  -1.28000,
,,,-00.000013580000,  -1.36000,
,,,-00.000013570000,  -1.36000,
,,,-00.000013560000,  -1.24000,
,,,-00.000013550000,  -1.24000,
,,,-00.000013540000,  -1.28000,
,,,-00.000013530000,  -1.24000,
,,,-00.000013520000,  -1.24000,
,,,-00.000013510000,  -1.32000,
,,,-00.000013500000,  -1.20000,
,,,-00.000013490000,  -1.28000,
,,,-00.000013480000,  -1.36000,
,,,-00.000013470000,  -1.32000,
,,,-00.000013460000,  -1.32000,
,,,-00.000013450000,  -1.24000,
,,,-00.000013440000,  -1.32000,
,,,-00.000013430000,  -1.28000,
,,,-00.000013420000,  -1.32000,
,,,-00.000013410000,  -1.32000,
,,,-00.000013400000,  -1.20000,
,,,-00.000013390000,  -1.24000,
,,,-00.000013380000,  -1.20000,
,,,-00.000013370000,  -1.20000,
,,,-00.000013360000,  -1.32000,
,,,-00.000013350000,  -1.28000,
,,,-00.000013340000,  -1.20000,
,,,-00.000013330000,  -1.20000,
,,,-00.000013320000,  -1.28000,
,,,-00.000013310000,  -1.24000,
,,,-00.000013300000,  -1.24000,
,,,-00.000013290000,  -1.28000,
,,,-00.000013280000,  -1.24000,
,,,-00.000013270000,  -1.24000,
,,,-00.000013260000,  -1.24000,
,,,-00.000013250000,  -1.28000,
,,,-00.000013240000,  -1.32000,
,,,-00.000013230000,  -1.24000,
,,,-00.000013220000,  -1.24000,
,,,-00.000013210000,  -1.24000,
,,,-00.000013200000,  -1.24000,
,,,-00.000013190000,  -1.24000,
,,,-00.000013180000,  -1.36000,
,,,-00.000013170000,  -1.32000,
,,,-00.000013160000,  -1.28000,
,,,-00.000013150000,  -1.28000,
,,,-00.000013140000,  -1.28000,
,,,-00.000013130000,  -1.28000,
,,,-00.000013120000,  -1.28000,
,,,-00.000013110000,  -1.28000,
,,,-00.000013100000,  -1.28000,
,,,-00.000013090000,  -1.28000,
,,,-00.000013080000,  -1.32000,
,,,-00.000013070000,  -1.28000,
,,,-00.000013060000,  -1.32000,
,,,-00.000013050000,  -1.28000,
,,,-00.000013040000,  -1.24000,
,,,-00.000013030000,  -1.32000,
,,,-00.000013020000,  -1.32000,
,,,-00.000013010000,  -1.28000,
,,,-00.000013000000,  -1.28000,
,,,-00.000012990000,  -1.32000,
,,,-00.000012980000,  -1.24000,
,,,-00.000012970000,  -1.28000,
,,,-00.000012960000,  -1.24000,
,,,-00.000012950000,  -1.32000,
,,,-00.000012940000,  -1.24000,
,,,-00.000012930000,  -1.28000,
,,,-00.000012920000,  -1.28000,
,,,-00.000012910000,  -1.32000,
,,,-00.000012900000,  -1.20000,
,,,-00.000012890000,  -1.20000,
,,,-00.000012880000,  -1.32000,
,,,-00.000012870000,  -1.24000,
,,,-00.000012860000,  -1.32000,
,,,-00.000012850000,  -1.28000,
,,,-00.000012840000,  -1.28000,
,,,-00.000012830000,  -1.36000,
,,,-00.000012820000,  -1.32000,
,,,-00.000012810000,  -1.32000,
,,,-00.000012800000,  -1.32000,
,,,-00.000012790000,  -1.28000,
,,,-00.000012780000,  -1.32000,
,,,-00.000012770000,  -1.32000,
,,,-00.000012760000,  -1.24000,
,,,-00.000012750000,  -1.32000,
,,,-00.000012740000,  -1.32000,
,,,-00.000012730000,  -1.24000,
,,,-00.000012720000,  -1.24000,
,,,-00.000012710000,  -1.28000,
,,,-00.000012700000,  -1.28000,
,,,-00.000012690000,  -1.28000,
,,,-00.000012680000,  -1.20000,
,,,-00.000012670000,  -1.20000,
,,,-00.000012660000,  -1.28000,
,,,-00.000012650000,  -1.28000,
,,,-00.000012640000,  -1.24000,
,,,-00.000012630000,  -1.32000,
,,,-00.000012620000,  -1.40000,
,,,-00.000012610000,  -1.28000,
,,,-00.000012600000,  -1.28000,
,,,-00.000012590000,  -1.28000,
,,,-00.000012580000,  -1.32000,
,,,-00.000012570000,  -1.28000,
,,,-00.000012560000,  -1.28000,
,,,-00.000012550000,  -1.28000,
,,,-00.000012540000,  -1.24000,
,,,-00.000012530000,  -1.28000,
,,,-00.000012520000,  -1.32000,
,,,-00.000012510000,  -1.24000,
,,,-00.000012500000,  -1.24000,
,,,-00.000012490000,  -1.36000,
,,,-00.000012480000,  -1.32000,
,,,-00.000012470000,  -1.32000,
,,,-00.000012460000,  -1.20000,
,,,-00.000012450000,  -1.28000,
,,,-00.000012440000,  -1.28000,
,,,-00.000012430000,  -1.32000,
,,,-00.000012420000,  -1.28000,
,,,-00.000012410000,  -1.24000,
,,,-00.000012400000,  -1.20000,
,,,-00.000012390000,  -1.28000,
,,,-00.000012380000,  -1.24000,
,,,-00.000012370000,  -1.36000,
,,,-00.000012360000,  -1.28000,
,,,-00.000012350000,  -1.28000,
,,,-00.000012340000,  -1.24000,
,,,-00.000012330000,  -1.28000,
,,,-00.000012320000,  -1.28000,
,,,-00.000012310000,  -1.28000,
,,,-00.000012300000,  -1.32000,
,,,-00.000012290000,  -1.28000,
,,,-00.000012280000,  -1.20000,
,,,-00.000012270000,  -1.28000,
,,,-00.000012260000,  -1.32000,
,,,-00.000012250000,  -1.36000,
,,,-00.000012240000,  -1.28000,
,,,-00.000012230000,  -1.20000,
,,,-00.000012220000,  -1.24000,
,,,-00.000012210000,  -1.28000,
,,,-00.000012200000,  -1.24000,
,,,-00.000012190000,  -1.32000,
,,,-00.000012180000,  -1.32000,
,,,-00.000012170000,  -1.32000,
,,,-00.000012160000,  -1.32000,
,,,-00.000012150000,  -1.28000,
,,,-00.000012140000,  -1.32000,
,,,-00.000012130000,  -1.36000,
,,,-00.000012120000,  -1.32000,
,,,-00.000012110000,  -1.24000,
,,,-00.000012100000,  -1.28000,
,,,-00.000012090000,  -1.32000,
,,,-00.000012080000,  -1.28000,
,,,-00.000012070000,  -1.28000,
,,,-00.000012060000,  -1.28000,
,,,-00.000012050000,  -1.24000,
,,,-00.000012040000,  -1.32000,
,,,-00.000012030000,  -1.24000,
,,,-00.000012020000,  -1.28000,
,,,-00.000012010000,  -1.28000,
,,,-00.000012000000,  -1.28000,
,,,-00.000011990000,  -1.24000,
,,,-00.000011980000,  -1.28000,
,,,-00.000011970000,  -1.28000,
,,,-00.000011960000,  -1.28000,
,,,-00.000011950000,  -1.28000,
,,,-00.000011940000,  -1.32000,
,,,-00.000011930000,  -1.32000,
,,,-00.000011920000,  -1.32000,
,,,-00.000011910000,  -1.28000,
,,,-00.000011900000,  -1.20000,
,,,-00.000011890000,  -1.28000,
,,,-00.000011880000,  -1.28000,
,,,-00.000011870000,  -1.36000,
,,,-00.000011860000,  -1.32000,
,,,-00.000011850000,  -1.20000,
,,,-00.000011840000,  -1.36000,
,,,-00.000011830000,  -1.28000,
,,,-00.000011820000,  -1.28000,
,,,-00.000011810000,  -1.32000,
,,,-00.000011800000,  -1.28000,
,,,-00.000011790000,  -1.28000,
,,,-00.000011780000,  -1.28000,
,,,-00.000011770000,  -1.28000,
,,,-00.000011760000,  -1.28000,
,,,-00.000011750000,  -1.28000,
,,,-00.000011740000,  -1.28000,
,,,-00.000011730000,  -1.20000,
,,,-00.000011720000,  -1.28000,
,,,-00.000011710000,  -1.32000,
,,,-00.000011700000,  -1.32000,
,,,-00.000011690000,  -1.20000,
,,,-00.000011680000,  -1.20000,
,,,-00.000011670000,  -1.32000,
,,,-00.000011660000,  -1.32000,
,,,-00.000011650000,  -1.28000,
,,,-00.000011640000,  -1.32000,
,,,-00.000011630000,  -1.24000,
,,,-00.000011620000,  -1.24000,
,,,-00.000011610000,  -1.24000,
,,,-00.000011600000,  -1.32000,
,,,-00.000011590000,  -1.28000,
,,,-00.000011580000,  -1.28000,
,,,-00.000011570000,  -1.24000,
,,,-00.000011560000,  -1.24000,
,,,-00.000011550000,  -1.28000,
,,,-00.000011540000,  -1.24000,
,,,-00.000011530000,  -1.28000,
,,,-00.000011520000,  -1.20000,
,,,-00.000011510000,  -1.28000,
,,,-00.000011500000,  -1.32000,
,,,-00.000011490000,  -1.32000,
,,,-00.000011480000,  -1.32000,
,,,-00.000011470000,  -1.24000,
,,,-00.000011460000,  -1.28000,
,,,-00.000011450000,  -1.28000,
,,,-00.000011440000,  -1.28000,
,,,-00.000011430000,  -1.28000,
,,,-00.000011420000,  -1.24000,
,,,-00.000011410000,  -1.20000,
,,,-00.000011400000,  -1.28000,
,,,-00.000011390000,  -1.24000,
,,,-00.000011380000,  -1.36000,
,,,-00.000011370000,  -1.28000,
,,,-00.000011360000,  -1.24000,
,,,-00.000011350000,  -1.20000,
,,,-00.000011340000,  -1.28000,
,,,-00.000011330000,  -1.24000,
,,,-00.000011320000,  -1.28000,
,,,-00.000011310000,  -1.32000,
,,,-00.000011300000,  -1.28000,
,,,-00.000011290000,  -1.20000,
,,,-00.000011280000,  -1.28000,
,,,-00.000011270000,  -1.28000,
,,,-00.000011260000,  -1.32000,
,,,-00.000011250000,  -1.24000,
,,,-00.000011240000,  -1.28000,
,,,-00.000011230000,  -1.24000,
,,,-00.000011220000,  -1.24000,
,,,-00.000011210000,  -1.28000,
,,,-00.000011200000,  -1.32000,
,,,-00.000011190000,  -1.36000,
,,,-00.000011180000,  -1.32000,
,,,-00.000011170000,  -1.32000,
,,,-00.000011160000,  -1.24000,
,,,-00.000011150000,  -1.32000,
,,,-00.000011140000,  -1.28000,
,,,-00.000011130000,  -1.28000,
,,,-00.000011120000,  -1.24000,
,,,-00.000011110000,  -1.32000,
,,,-00.000011100000,  -1.28000,
,,,-00.000011090000,  -1.36000,
,,,-00.000011080000,  -1.32000,
,,,-00.000011070000,  -1.20000,
,,,-00.000011060000,  -1.24000,
,,,-00.000011050000,  -1.28000,
,,,-00.000011040000,  -1.28000,
,,,-00.000011030000,  -1.28000,
,,,-00.000011020000,  -1.28000,
,,,-00.000011010000,  -1.28000,
,,,-00.000011000000,  -1.24000,
,,,-00.000010990000,  -1.28000,
,,,-00.000010980000,  -1.28000,
,,,-00.000010970000,  -1.20000,
,,,-00.000010960000,   1.92000,
,,,-00.000010950000,   2.00000,
,,,-00.000010940000,   1.96000,
,,,-00.000010930000,   1.96000,
,,,-00.000010920000,   2.00000,
,,,-00.000010910000,   2.00000,
,,,-00.000010900000,   1.96000,
,,,-00.000010890000,   1.96000,
,,,-00.000010880000,   2.00000,
,,,-00.000010870000,   2.00000,
,,,-00.000010860000,   2.04000,
,,,-00.000010850000,   2.00000,
,,,-00.000010840000,   2.00000,
,,,-00.000010830000,   2.00000,
,,,-00.000010820000,   2.00000,
,,,-00.000010810000,   1.96000,
,,,-00.000010800000,   1.96000,
,,,-00.000010790000,   2.00000,
,,,-00.000010780000,   1.92000,
,,,-00.000010770000,   2.00000,
,,,-00.000010760000,   1.96000,
,,,-00.000010750000,   2.00000,
,,,-00.000010740000,   1.96000,
,,,-00.000010730000,   1.92000,
,,,-00.000010720000,   2.00000,
,,,-00.000010710000,   2.00000,
,,,-00.000010700000,   1.96000,
,,,-00.000010690000,   1.96000,
,,,-00.000010680000,   1.96000,
,,,-00.000010670000,   1.96000,
,,,-00.000010660000,   2.00000,
,,,-00.000010650000,   2.00000,
,,,-00.000010640000,   1.96000,
,,,-00.000010630000,   1.96000,
,,,-00.000010620000,   1.96000,
,,,-00.000010610000,   2.00000,
,,,-00.000010600000,   2.00000,
,,,-00.000010590000,   1.96000,
,,,-00.000010580000,   2.00000,
,,,-00.000010570000,   1.96000,
,,,-00.000010560000,   1.96000,
,,,-00.000010550000,   1.92000,
,,,-00.000010540000,   1.96000,
,,,-00.000010530000,   1.96000,
,,,-00.000010520000,   2.00000,
,,,-00.000010510000,   2.00000,
,,,-00.000010500000,   1.96000,
,,,-00.000010490000,   2.00000,
,,,-00.000010480000,   1.92000,
,,,-00.000010470000,   2.00000,
,,,-00.000010460000,   1.92000,
,,,-00.000010450000,   2.00000,
,,,-00.000010440000,   1.96000,
,,,-00.000010430000,   1.96000,
,,,-00.000010420000,   1.96000,
,,,-00.000010410000,   1.96000,
,,,-00.000010400000,   2.00000,
,,,-00.000010390000,   2.00000,
,,,-00.000010380000,   1.92000,
,,,-00.000010370000,   1.92000,
,,,-00.000010360000,   2.04000,
,,,-00.000010350000,   1.96000,
,,,-00.000010340000,   2.00000,
,,,-00.000010330000,   2.00000,
,,,-00.000010320000,   2.04000,
,,,-00.000010310000,   2.00000,
,,,-00.000010300000,   1.96000,
,,,-00.000010290000,   1.96000,
,,,-00.000010280000,   1.96000,
,,,-00.000010270000,   2.00000,
,,,-00.000010260000,   1.96000,
,,,-00.000010250000,   1.96000,
,,,-00.000010240000,   1.96000,
,,,-00.000010230000,   1.96000,
,,,-00.000010220000,   2.00000,
,,,-00.000010210000,   1.96000,
,,,-00.000010200000,   2.04000,
,,,-00.000010190000,   1.96000,
,,,-00.000010180000,   2.04000,
,,,-00.000010170000,   2.00000,
,,,-00.000010160000,   1.92000,
,,,-00.000010150000,   2.00000,
,,,-00.000010140000,   1.96000,
,,,-00.000010130000,   2.00000,
,,,-00.000010120000,   2.04000,
,,,-00.000010110000,   1.96000,
,,,-00.000010100000,   2.00000,
,,,-00.000010090000,   2.00000,
,,,-00.000010080000,   1.96000,
,,,-00.000010070000,   1.96000,
,,,-00.000010060000,   1.96000,
,,,-00.000010050000,   2.00000,
,,,-00.000010040000,   1.92000,
,,,-00.000010030000,   1.96000,
,,,-00.000010020000,   1.92000,
,,,-00.000010010000,   2.00000,
,,,-00.000010000000,   2.00000,
,,,-00.000009990000,   1.96000,
,,,-00.000009980000,   1.96000,
,,,-00.000009970000,   2.00000,
,,,-00.000009960000,   1.96000,
,,,-00.000009950000,   2.00000,
,,,-00.000009940000,   1.96000,
,,,-00.000009930000,   2.00000,
,,,-00.000009920000,   2.00000,
,,,-00.000009910000,   2.04000,
,,,-00.000009900000,   1.96000,
,,,-00.000009890000,   2.00000,
,,,-00.000009880000,   2.00000,
,,,-00.000009870000,   2.00000,
,,,-00.000009860000,   2.04000,
,,,-00.000009850000,   2.00000,
,,,-00.000009840000,   2.00000,
,,,-00.000009830000,   2.04000,
,,,-00.000009820000,   2.00000,
,,,-00.000009810000,   2.00000,
,,,-00.000009800000,   2.00000,
,,,-00.000009790000,   2.00000,
,,,-00.000009780000,   1.92000,
,,,-00.000009770000,   1.96000,
,,,-00.000009760000,   2.00000,
,,,-00.000009750000,   2.04000,
,,,-00.000009740000,   1.92000,
,,,-00.000009730000,   1.96000,
,,,-00.000009720000,   1.96000,
,,,-00.000009710000,   2.00000,
,,,-00.000009700000,   2.00000,
,,,-00.000009690000,   2.00000,
,,,-00.000009680000,   1.96000,
,,,-00.000009670000,   1.96000,
,,,-00.000009660000,   1.96000,
,,,-00.000009650000,   1.96000,
,,,-00.000009640000,   2.00000,
,,,-00.000009630000,   2.00000,
,,,-00.000009620000,   2.04000,
,,,-00.000009610000,   2.04000,
,,,-00.000009600000,   2.04000,
,,,-00.000009590000,   2.00000,
,,,-00.000009580000,   1.96000,
,,,-00.000009570000,   1.96000,
,,,-00.000009560000,   2.00000,
,,,-00.000009550000,   2.00000,
,,,-00.000009540000,   2.00000,
,,,-00.000009530000,   2.00000,
,,,-00.000009520000,   2.04000,
,,,-00.000009510000,   2.04000,
,,,-00.000009500000,   2.00000,
,,,-00.000009490000,   1.96000,
,,,-00.000009480000,   1.96000,
,,,-00.000009470000,   1.96000,
,,,-00.000009460000,   2.00000,
,,,-00.000009450000,   2.00000,
,,,-00.000009440000,   2.00000,
,,,-00.000009430000,   1.96000,
,,,-00.000009420000,   2.00000,
,,,-00.000009410000,   2.04000,
,,,-00.000009400000,   1.96000,
,,,-00.000009390000,   1.96000,
,,,-00.000009380000,   2.00000,
,,,-00.000009370000,   2.00000,
,,,-00.000009360000,   2.00000,
,,,-00.000009350000,   2.00000,
,,,-00.000009340000,   2.00000,
,,,-00.000009330000,   1.96000,
,,,-00.000009320000,   2.04000,
,,,-00.000009310000,   2.00000,
,,,-00.000009300000,   2.00000,
,,,-00.000009290000,   1.96000,
,,,-00.000009280000,   2.04000,
,,,-00.000009270000,   2.00000,
,,,-00.000009260000,   2.04000,
,,,-00.000009250000,   2.00000,
,,,-00.000009240000,   2.00000,
,,,-00.000009230000,   2.00000,
,,,-00.000009220000,   1.96000,
,,,-00.000009210000,   2.00000,
,,,-00.000009200000,   1.96000,
,,,-00.000009190000,   2.04000,
,,,-00.000009180000,   2.00000,
,,,-00.000009170000,   1.96000,
,,,-00.000009160000,   2.00000,
,,,-00.000009150000,   1.96000,
,,,-00.000009140000,   2.04000,
,,,-00.000009130000,   2.00000,
,,,-00.000009120000,   1.96000,
,,,-00.000009110000,   2.08000,
,,,-00.000009100000,   1.96000,
,,,-00.000009090000,   2.00000,
,,,-00.000009080000,   2.00000,
,,,-00.000009070000,   1.96000,
,,,-00.000009060000,   2.00000,
,,,-00.000009050000,   1.96000,
,,,-00.000009040000,   1.96000,
,,,-00.000009030000,   1.96000,
,,,-00.000009020000,   2.00000,
,,,-00.000009010000,   2.00000,
,,,-00.000009000000,   1.96000,
,,,-00.000008990000,   2.00000,
,,,-00.000008980000,   2.00000,
,,,-00.000008970000,   2.00000,
,,,-00.000008960000,   1.96000,
,,,-00.000008950000,   1.96000,
,,,-00.000008940000,   2.00000,
,,,-00.000008930000,   2.04000,
,,,-00.000008920000,   1.96000,
,,,-00.000008910000,   2.00000,
,,,-00.000008900000,   2.04000,
,,,-00.000008890000,   2.00000,
,,,-00.000008880000,   2.04000,
,,,-00.000008870000,   2.00000,
,,,-00.000008860000,   2.00000,
,,,-00.000008850000,   1.96000,
,,,-00.000008840000,   2.00000,
,,,-00.000008830000,   1.96000,
,,,-00.000008820000,   2.00000,
,,,-00.000008810000,   2.04000,
,,,-00.000008800000,   1.96000,
,,,-00.000008790000,   1.96000,
,,,-00.000008780000,   2.00000,
,,,-00.000008770000,   2.00000,
,,,-00.000008760000,   2.00000,
,,,-00.000008750000,   1.92000,
,,,-00.000008740000,   1.96000,
,,,-00.000008730000,   2.04000,
,,,-00.000008720000,   2.04000,
,,,-00.000008710000,   2.00000,
,,,-00.000008700000,   1.96000,
,,,-00.000008690000,   2.00000,
,,,-00.000008680000,   2.00000,
,,,-00.000008670000,   2.00000,
,,,-00.000008660000,   2.00000,
,,,-00.000008650000,   1.96000,
,,,-00.000008640000,   2.00000,
,,,-00.000008630000,   2.04000,
,,,-00.000008620000,   2.00000,
,,,-00.000008610000,   1.96000,
,,,-00.000008600000,   2.00000,
,,,-00.000008590000,   2.04000,
,,,-00.000008580000,   2.00000,
,,,-00.000008570000,   1.92000,
,,,-00.000008560000,   2.04000,
,,,-00.000008550000,   2.04000,
,,,-00.000008540000,   2.00000,
,,,-00.000008530000,   2.00000,
,,,-00.000008520000,   2.00000,
,,,-00.000008510000,   2.04000,
,,,-00.000008500000,   2.00000,
,,,-00.000008490000,   2.00000,
,,,-00.000008480000,   1.96000,
,,,-00.000008470000,   2.00000,
,,,-00.000008460000,   2.00000,
,,,-00.000008450000,   2.00000,
,,,-00.000008440000,   2.00000,
,,,-00.000008430000,   2.00000,
,,,-00.000008420000,   2.00000,
,,,-00.000008410000,   2.00000,
,,,-00.000008400000,   2.00000,
,,,-00.000008390000,   1.96000,
,,,-00.000008380000,   2.00000,
,,,-00.000008370000,   2.00000,
,,,-00.000008360000,   2.00000,
,,,-00.000008350000,   2.00000,
,,,-00.000008340000,   1.96000,
,,,-00.000008330000,   2.00000,
,,,-00.000008320000,   2.00000,
,,,-00.000008310000,   2.00000,
,,,-00.000008300000,   1.96000,
,,,-00.000008290000,   2.04000,
,,,-00.000008280000,   2.04000,
,,,-00.000008270000,   2.04000,
,,,-00.000008260000,   2.04000,
,,,-00.000008250000,   2.00000,
,,,-00.000008240000,   2.00000,
,,,-00.000008230000,   2.00000,
,,,-00.000008220000,   2.00000,
,,,-00.000008210000,   2.00000,
,,,-00.000008200000,   1.96000,
,,,-00.000008190000,   1.96000,
,,,-00.000008180000,   1.92000,
,,,-00.000008170000,   2.04000,
